Import morphometric files data — from • Momit
…
#> 	coo
#> 	cur
#> 	domes
#> 	id
#> 	ind
#> 	ldk
#> 	out
#> 	size
#> 	sp
#> 	taxa
#> 	type
#> 	var
#> 	view
#> 
#> # A tibble: 49 x 14
#>    name  id    sp    taxa  out   ldk   cur   type  size  coo   var   domes view 
#>    <chr> <chr> <chr> <chr> <lis> <lis> <lis> <chr> <chr> <lis> <chr> <chr> <chr>
#>  1 plop  1     plip  plup  <coo> <coo> <coo> NA    NA    <NUL… NA    NA    NA   
#>  2 plup  2     plup  plup  <coo> <coo> <coo> NA    NA    <NUL… NA    NA    NA   
#>  3 brah… NA    NA    NA    <NUL… <NUL… <NUL… 2     333.… <coo> NA    NA    NA   
#>  4 caney NA    NA    NA    <NUL… <NUL… <NUL… 2     306.… <coo> NA    NA    NA   
#>  5 chim… NA    NA    NA    <NUL… <NUL… <NUL… 2     220.… <coo> NA    NA    NA   
#>  6 coro… NA    NA    NA    <NUL… <NUL… <NUL… 2     244.… <coo> NA    NA    NA   
#>  7 deus… NA    NA    NA    <NUL… <NUL… <NUL… 2     279.… <coo> NA    NA    NA   
#>  8 amrut NA    NA    NA    <NUL… <NUL… <NUL… 1     266.… <coo> NA    NA    NA   
#>  9 ball… NA    NA    NA    <NUL… <NUL… <NUL… 1     248.… <coo> NA    NA    NA   
#> 10 bush… NA    NA    NA    <NUL… <NUL… <NUL… 1     275.… <coo> NA    NA    NA   
#> # … with 39 more rows, and 1 more variable: ind <chr>
…
