Use Momit • Momit
…
All from_* functions have the same skeleton. Let’s dissecate its components, first harvest. It is just a convenient wrapper around list.files that will find files (here only files ending with mom). Then, parse_mom.

harvest("mom_files") %>% parse_mom()

## # A tibble: 36 x 2
##    x                   what       
##    <chr>               <chr>      
##  1 ~0001-cPastor_O10VD collated   
##  2 var Pastor          cov_categ  
##  3 domes cult          cov_categ  
##  4 view VD             cov_categ  
##  5 ind O10             cov_categ  
##  6 size 2.23           cov_quant  
##  7 -0.5000 0.00000     coordinates
##  8 -0.4967 0.01035     coordinates
##  9 -0.4935 0.02414     coordinates
## 10 ~0001-cPastor_O10VL collated   
## # ... with 26 more rows
## 
## * 4  collated
## * 12 coordinates
## * 16 cov_categ
## * 4  cov_quant
## ✓ all lines tagged

Here we have the parsed data.frame. Apparently everything gone fine. Let’s simulate a wrong syntax in the .mom file.

m <- harvest("mom_files")
m[[1]][5] <- "0.5; please crash"
m %>% parse_mom

## # A tibble: 36 x 2
##    x                   what       
##    <chr>               <chr>      
##  1 ~0001-cPastor_O10VD collated   
##  2 var Pastor          cov_categ  
##  3 domes cult          cov_categ  
##  4 view VD             cov_categ  
##  5 0.5; please crash   non_valid  
##  6 size 2.23           cov_quant  
##  7 -0.5000 0.00000     coordinates
##  8 -0.4967 0.01035     coordinates
##  9 -0.4935 0.02414     coordinates
## 10 ~0001-cPastor_O10VL collated   
## # ... with 26 more rows
## 
##  ✗ 1 non valid line(s)
…
