Develop new from_ functions • Momit
…
x_cleaned <- x %>% 
  brush_remove_lines('"') %>% 
   brush_remove_lines("([[:alnum:]]+ ){3,}") %>%  
  brush_add_tildes()
head(x_cleaned)

## [1] "~AN1"             " -0.4933  0.0130" " -0.0777  0.0832"
## [4] "  0.2231  0.0861" "  0.2641  0.0462" "  0.2645  0.0261"

Sounds good! Once you’ve cleaned up a bit, you can try to parse it with parse_mom

x_cleaned %>% parse_mom

## # A tibble: 2,413 x 2
##    x              what       
##    <chr>          <chr>      
##  1 ~AN1           collated   
##  2 -0.4933 0.0130 coordinates
##  3 -0.0777 0.0832 coordinates
##  4 0.2231 0.0861  coordinates
##  5 0.2641 0.0462  coordinates
##  6 0.2645 0.0261  coordinates
##  7 0.2471 0.0003  coordinates
##  8 0.2311 -0.0228 coordinates
##  9 0.2040 -0.0452 coordinates
## 10 0.1282 -0.0742 coordinates
## # ... with 2,403 more rows
## 
## * 127    collated
## * 2286   coordinates
## ✓ all lines tagged

Here you have the green light and the 127 individuals are succesfully imported. If this is not the case, continue to brush to make it shine before parse_mom.

This premom_df can now be momifyied. Something behind the curtain when you just use Momit with already written from_* functions.

x_cleaned %>% parse_mom() %>% momify

## # A tibble: 127 x 2
##    name  coo           
##    <chr> <list>        
##  1 AN1   <dbl [18 × 2]>
##  2 AN2   <dbl [18 × 2]>
##  3 AN3   <dbl [18 × 2]>
##  4 AN4   <dbl [18 × 2]>
##  5 AN5   <dbl [18 × 2]>
##  6 AN6   <dbl [18 × 2]>
##  7 AN7   <dbl [18 × 2]>
##  8 AN8   <dbl [18 × 2]>
##  9 AN9   <dbl [18 × 2]>
## 10 AN10  <dbl [18 × 2]>
## # ... with 117 more rows
…
