Import morphometric files data — from • Momit
…
#> ❯ some components were not found everywhere:
#> 	coo
#> 	cur
#> 	domes
#> 	id
#> 	ind
#> 	ldk
#> 	out
#> 	size
#> 	sp
#> 	taxa
#> 	type
#> 	var
#> 	view
#> # A tibble: 49 x 14
#>    name   id    sp    taxa  out    ldk    cur    type  size   coo   var   domes
#>    <chr>  <chr> <chr> <chr> <list> <list> <list> <chr> <chr>  <lis> <chr> <chr>
#>  1 plop   1     plip  plup  <S3: … <S3: … <S3: … <NA>  <NA>   <NUL… <NA>  <NA> 
#>  2 plup   2     plup  plup  <S3: … <S3: … <S3: … <NA>  <NA>   <NUL… <NA>  <NA> 
#>  3 brahma <NA>  <NA>  <NA>  <NULL> <NULL> <NULL> 2     333.7… <S3:… <NA>  <NA> 
#>  4 caney  <NA>  <NA>  <NA>  <NULL> <NULL> <NULL> 2     306.4… <S3:… <NA>  <NA> 
#>  5 chimay <NA>  <NA>  <NA>  <NULL> <NULL> <NULL> 2     220.9… <S3:… <NA>  <NA> 
#>  6 corona <NA>  <NA>  <NA>  <NULL> <NULL> <NULL> 2     244.8… <S3:… <NA>  <NA> 
#>  7 deusv… <NA>  <NA>  <NA>  <NULL> <NULL> <NULL> 2     279.2… <S3:… <NA>  <NA> 
#>  8 amrut  <NA>  <NA>  <NA>  <NULL> <NULL> <NULL> 1     266.0… <S3:… <NA>  <NA> 
#>  9 balla… <NA>  <NA>  <NA>  <NULL> <NULL> <NULL> 1     248.3… <S3:… <NA>  <NA> 
#> 10 bushm… <NA>  <NA>  <NA>  <NULL> <NULL> <NULL> 1     275.3… <S3:… <NA>  <NA> 
#> # ... with 39 more rows, and 2 more variables: view <chr>, ind <chr>
…
